{
    "/demo8/plugins/custom/ckeditor/ckeditor-balloon-block.bundle.js": "/demo8/plugins/custom/ckeditor/ckeditor-balloon-block.bundle.js",
    "/demo8/plugins/custom/ckeditor/ckeditor-balloon.bundle.js": "/demo8/plugins/custom/ckeditor/ckeditor-balloon.bundle.js",
    "/demo8/plugins/custom/ckeditor/ckeditor-classic.bundle.js": "/demo8/plugins/custom/ckeditor/ckeditor-classic.bundle.js",
    "/demo8/plugins/custom/ckeditor/ckeditor-document.bundle.js": "/demo8/plugins/custom/ckeditor/ckeditor-document.bundle.js",
    "/demo8/plugins/custom/ckeditor/ckeditor-inline.bundle.js": "/demo8/plugins/custom/ckeditor/ckeditor-inline.bundle.js",
    "/demo8/plugins/custom/cookiealert/cookiealert.bundle.js": "/demo8/plugins/custom/cookiealert/cookiealert.bundle.js",
    "/demo8/plugins/custom/cropper/cropper.bundle.js": "/demo8/plugins/custom/cropper/cropper.bundle.js",
    "/demo8/plugins/custom/draggable/draggable.bundle.js": "/demo8/plugins/custom/draggable/draggable.bundle.js",
    "/demo8/plugins/custom/flotcharts/flotcharts.bundle.js": "/demo8/plugins/custom/flotcharts/flotcharts.bundle.js",
    "/demo8/plugins/custom/fslightbox/fslightbox.bundle.js": "/demo8/plugins/custom/fslightbox/fslightbox.bundle.js",
    "/demo8/plugins/custom/jkanban/jkanban.bundle.js": "/demo8/plugins/custom/jkanban/jkanban.bundle.js",
    "/demo8/plugins/custom/jstree/jstree.bundle.js": "/demo8/plugins/custom/jstree/jstree.bundle.js",
    "/demo8/plugins/custom/leaflet/leaflet.bundle.js": "/demo8/plugins/custom/leaflet/leaflet.bundle.js",
    "/demo8/plugins/custom/prismjs/prismjs.bundle.js": "/demo8/plugins/custom/prismjs/prismjs.bundle.js",
    "/demo8/plugins/custom/tiny-slider/tiny-slider.bundle.js": "/demo8/plugins/custom/tiny-slider/tiny-slider.bundle.js",
    "/demo8/plugins/custom/tinymce/tinymce.bundle.js": "/demo8/plugins/custom/tinymce/tinymce.bundle.js",
    "/demo8/plugins/custom/typedjs/typedjs.bundle.js": "/demo8/plugins/custom/typedjs/typedjs.bundle.js",
    "/demo8/js/custom/account/api-keys/api-keys.js": "/demo8/js/custom/account/api-keys/api-keys.js",
    "/demo8/js/custom/account/orders/classic.js": "/demo8/js/custom/account/orders/classic.js",
    "/demo8/js/custom/account/referrals/referral-program.js": "/demo8/js/custom/account/referrals/referral-program.js",
    "/demo8/js/custom/account/security/license-usage.js": "/demo8/js/custom/account/security/license-usage.js",
    "/demo8/js/custom/account/security/security-summary.js": "/demo8/js/custom/account/security/security-summary.js",
    "/demo8/js/custom/account/settings/deactivate-account.js": "/demo8/js/custom/account/settings/deactivate-account.js",
    "/demo8/js/custom/account/settings/overview.js": "/demo8/js/custom/account/settings/overview.js",
    "/demo8/js/custom/apps/calendar/calendar.js": "/demo8/js/custom/apps/calendar/calendar.js",
    "/demo8/js/custom/apps/chat/chat.js": "/demo8/js/custom/apps/chat/chat.js",
    "/demo8/js/custom/apps/contacts/edit-contact.js": "/demo8/js/custom/apps/contacts/edit-contact.js",
    "/demo8/js/custom/apps/contacts/view-contact.js": "/demo8/js/custom/apps/contacts/view-contact.js",
    "/demo8/js/custom/apps/customers/add.js": "/demo8/js/custom/apps/customers/add.js",
    "/demo8/js/custom/apps/customers/list/export.js": "/demo8/js/custom/apps/customers/list/export.js",
    "/demo8/js/custom/apps/customers/list/list.js": "/demo8/js/custom/apps/customers/list/list.js",
    "/demo8/js/custom/apps/customers/update.js": "/demo8/js/custom/apps/customers/update.js",
    "/demo8/js/custom/apps/customers/view/add-payment.js": "/demo8/js/custom/apps/customers/view/add-payment.js",
    "/demo8/js/custom/apps/customers/view/adjust-balance.js": "/demo8/js/custom/apps/customers/view/adjust-balance.js",
    "/demo8/js/custom/apps/customers/view/invoices.js": "/demo8/js/custom/apps/customers/view/invoices.js",
    "/demo8/js/custom/apps/customers/view/payment-method.js": "/demo8/js/custom/apps/customers/view/payment-method.js",
    "/demo8/js/custom/apps/customers/view/payment-table.js": "/demo8/js/custom/apps/customers/view/payment-table.js",
    "/demo8/js/custom/apps/customers/view/statement.js": "/demo8/js/custom/apps/customers/view/statement.js",
    "/demo8/js/custom/apps/ecommerce/catalog/categories.js": "/demo8/js/custom/apps/ecommerce/catalog/categories.js",
    "/demo8/js/custom/apps/ecommerce/catalog/products.js": "/demo8/js/custom/apps/ecommerce/catalog/products.js",
    "/demo8/js/custom/apps/ecommerce/catalog/save-category.js": "/demo8/js/custom/apps/ecommerce/catalog/save-category.js",
    "/demo8/js/custom/apps/ecommerce/catalog/save-product.js": "/demo8/js/custom/apps/ecommerce/catalog/save-product.js",
    "/demo8/js/custom/apps/ecommerce/customers/details/add-address.js": "/demo8/js/custom/apps/ecommerce/customers/details/add-address.js",
    "/demo8/js/custom/apps/ecommerce/customers/details/add-auth-app.js": "/demo8/js/custom/apps/ecommerce/customers/details/add-auth-app.js",
    "/demo8/js/custom/apps/ecommerce/customers/details/add-one-time-password.js": "/demo8/js/custom/apps/ecommerce/customers/details/add-one-time-password.js",
    "/demo8/js/custom/apps/ecommerce/customers/details/payment-method.js": "/demo8/js/custom/apps/ecommerce/customers/details/payment-method.js",
    "/demo8/js/custom/apps/ecommerce/customers/details/transaction-history.js": "/demo8/js/custom/apps/ecommerce/customers/details/transaction-history.js",
    "/demo8/js/custom/apps/ecommerce/customers/details/update-address.js": "/demo8/js/custom/apps/ecommerce/customers/details/update-address.js",
    "/demo8/js/custom/apps/ecommerce/customers/details/update-password.js": "/demo8/js/custom/apps/ecommerce/customers/details/update-password.js",
    "/demo8/js/custom/apps/ecommerce/customers/details/update-phone.js": "/demo8/js/custom/apps/ecommerce/customers/details/update-phone.js",
    "/demo8/js/custom/apps/ecommerce/customers/details/update-profile.js": "/demo8/js/custom/apps/ecommerce/customers/details/update-profile.js",
    "/demo8/js/custom/apps/ecommerce/customers/listing/add.js": "/demo8/js/custom/apps/ecommerce/customers/listing/add.js",
    "/demo8/js/custom/apps/ecommerce/customers/listing/export.js": "/demo8/js/custom/apps/ecommerce/customers/listing/export.js",
    "/demo8/js/custom/apps/ecommerce/customers/listing/listing.js": "/demo8/js/custom/apps/ecommerce/customers/listing/listing.js",
    "/demo8/js/custom/apps/ecommerce/reports/customer-orders/customer-orders.js": "/demo8/js/custom/apps/ecommerce/reports/customer-orders/customer-orders.js",
    "/demo8/js/custom/apps/ecommerce/reports/returns/returns.js": "/demo8/js/custom/apps/ecommerce/reports/returns/returns.js",
    "/demo8/js/custom/apps/ecommerce/reports/sales/sales.js": "/demo8/js/custom/apps/ecommerce/reports/sales/sales.js",
    "/demo8/js/custom/apps/ecommerce/reports/shipping/shipping.js": "/demo8/js/custom/apps/ecommerce/reports/shipping/shipping.js",
    "/demo8/js/custom/apps/ecommerce/reports/views/views.js": "/demo8/js/custom/apps/ecommerce/reports/views/views.js",
    "/demo8/js/custom/apps/ecommerce/sales/listing.js": "/demo8/js/custom/apps/ecommerce/sales/listing.js",
    "/demo8/js/custom/apps/ecommerce/sales/save-order.js": "/demo8/js/custom/apps/ecommerce/sales/save-order.js",
    "/demo8/js/custom/apps/ecommerce/settings/settings.js": "/demo8/js/custom/apps/ecommerce/settings/settings.js",
    "/demo8/js/custom/apps/file-manager/list.js": "/demo8/js/custom/apps/file-manager/list.js",
    "/demo8/js/custom/apps/file-manager/settings.js": "/demo8/js/custom/apps/file-manager/settings.js",
    "/demo8/js/custom/apps/inbox/compose.js": "/demo8/js/custom/apps/inbox/compose.js",
    "/demo8/js/custom/apps/inbox/listing.js": "/demo8/js/custom/apps/inbox/listing.js",
    "/demo8/js/custom/apps/inbox/reply.js": "/demo8/js/custom/apps/inbox/reply.js",
    "/demo8/js/custom/apps/invoices/create.js": "/demo8/js/custom/apps/invoices/create.js",
    "/demo8/js/custom/apps/projects/list/list.js": "/demo8/js/custom/apps/projects/list/list.js",
    "/demo8/js/custom/apps/projects/project/project.js": "/demo8/js/custom/apps/projects/project/project.js",
    "/demo8/js/custom/apps/projects/settings/settings.js": "/demo8/js/custom/apps/projects/settings/settings.js",
    "/demo8/js/custom/apps/projects/targets/targets.js": "/demo8/js/custom/apps/projects/targets/targets.js",
    "/demo8/js/custom/apps/projects/users/users.js": "/demo8/js/custom/apps/projects/users/users.js",
    "/demo8/js/custom/apps/subscriptions/add/advanced.js": "/demo8/js/custom/apps/subscriptions/add/advanced.js",
    "/demo8/js/custom/apps/subscriptions/add/customer-select.js": "/demo8/js/custom/apps/subscriptions/add/customer-select.js",
    "/demo8/js/custom/apps/subscriptions/add/products.js": "/demo8/js/custom/apps/subscriptions/add/products.js",
    "/demo8/js/custom/apps/subscriptions/list/export.js": "/demo8/js/custom/apps/subscriptions/list/export.js",
    "/demo8/js/custom/apps/subscriptions/list/list.js": "/demo8/js/custom/apps/subscriptions/list/list.js",
    "/demo8/js/custom/apps/support-center/tickets/create.js": "/demo8/js/custom/apps/support-center/tickets/create.js",
    "/demo8/js/custom/apps/user-management/permissions/add-permission.js": "/demo8/js/custom/apps/user-management/permissions/add-permission.js",
    "/demo8/js/custom/apps/user-management/permissions/list.js": "/demo8/js/custom/apps/user-management/permissions/list.js",
    "/demo8/js/custom/apps/user-management/permissions/update-permission.js": "/demo8/js/custom/apps/user-management/permissions/update-permission.js",
    "/demo8/js/custom/apps/user-management/roles/list/add.js": "/demo8/js/custom/apps/user-management/roles/list/add.js",
    "/demo8/js/custom/apps/user-management/roles/list/update-role.js": "/demo8/js/custom/apps/user-management/roles/list/update-role.js",
    "/demo8/js/custom/apps/user-management/roles/view/update-role.js": "/demo8/js/custom/apps/user-management/roles/view/update-role.js",
    "/demo8/js/custom/apps/user-management/roles/view/view.js": "/demo8/js/custom/apps/user-management/roles/view/view.js",
    "/demo8/js/custom/apps/user-management/users/list/add.js": "/demo8/js/custom/apps/user-management/users/list/add.js",
    "/demo8/js/custom/apps/user-management/users/list/export-users.js": "/demo8/js/custom/apps/user-management/users/list/export-users.js",
    "/demo8/js/custom/apps/user-management/users/list/table.js": "/demo8/js/custom/apps/user-management/users/list/table.js",
    "/demo8/js/custom/apps/user-management/users/view/add-auth-app.js": "/demo8/js/custom/apps/user-management/users/view/add-auth-app.js",
    "/demo8/js/custom/apps/user-management/users/view/add-one-time-password.js": "/demo8/js/custom/apps/user-management/users/view/add-one-time-password.js",
    "/demo8/js/custom/apps/user-management/users/view/add-schedule.js": "/demo8/js/custom/apps/user-management/users/view/add-schedule.js",
    "/demo8/js/custom/apps/user-management/users/view/add-task.js": "/demo8/js/custom/apps/user-management/users/view/add-task.js",
    "/demo8/js/custom/apps/user-management/users/view/update-details.js": "/demo8/js/custom/apps/user-management/users/view/update-details.js",
    "/demo8/js/custom/apps/user-management/users/view/update-email.js": "/demo8/js/custom/apps/user-management/users/view/update-email.js",
    "/demo8/js/custom/apps/user-management/users/view/update-password.js": "/demo8/js/custom/apps/user-management/users/view/update-password.js",
    "/demo8/js/custom/apps/user-management/users/view/update-role.js": "/demo8/js/custom/apps/user-management/users/view/update-role.js",
    "/demo8/js/custom/apps/user-management/users/view/view.js": "/demo8/js/custom/apps/user-management/users/view/view.js",
    "/demo8/js/custom/authentication/sign-in/two-steps.js": "/demo8/js/custom/authentication/sign-in/two-steps.js",
    "/demo8/js/custom/authentication/sign-up/coming-soon.js": "/demo8/js/custom/authentication/sign-up/coming-soon.js",
    "/demo8/js/custom/authentication/sign-up/free-trial.js": "/demo8/js/custom/authentication/sign-up/free-trial.js",
    "/demo8/js/custom/documentation/base/forms/advanced.js": "/demo8/js/custom/documentation/base/forms/advanced.js",
    "/demo8/js/custom/documentation/base/indicator.js": "/demo8/js/custom/documentation/base/indicator.js",
    "/demo8/js/custom/documentation/base/modal.js": "/demo8/js/custom/documentation/base/modal.js",
    "/demo8/js/custom/documentation/base/rotate.js": "/demo8/js/custom/documentation/base/rotate.js",
    "/demo8/js/custom/documentation/base/toasts.js": "/demo8/js/custom/documentation/base/toasts.js",
    "/demo8/js/custom/documentation/charts/amcharts/charts.js": "/demo8/js/custom/documentation/charts/amcharts/charts.js",
    "/demo8/js/custom/documentation/charts/amcharts/maps.js": "/demo8/js/custom/documentation/charts/amcharts/maps.js",
    "/demo8/js/custom/documentation/charts/amcharts/stock-charts.js": "/demo8/js/custom/documentation/charts/amcharts/stock-charts.js",
    "/demo8/js/custom/documentation/charts/apexcharts.js": "/demo8/js/custom/documentation/charts/apexcharts.js",
    "/demo8/js/custom/documentation/charts/chartjs.js": "/demo8/js/custom/documentation/charts/chartjs.js",
    "/demo8/js/custom/documentation/charts/flotcharts/axis.js": "/demo8/js/custom/documentation/charts/flotcharts/axis.js",
    "/demo8/js/custom/documentation/charts/flotcharts/bar.js": "/demo8/js/custom/documentation/charts/flotcharts/bar.js",
    "/demo8/js/custom/documentation/charts/flotcharts/basic.js": "/demo8/js/custom/documentation/charts/flotcharts/basic.js",
    "/demo8/js/custom/documentation/charts/flotcharts/dynamic.js": "/demo8/js/custom/documentation/charts/flotcharts/dynamic.js",
    "/demo8/js/custom/documentation/charts/flotcharts/pie.js": "/demo8/js/custom/documentation/charts/flotcharts/pie.js",
    "/demo8/js/custom/documentation/charts/flotcharts/stack.js": "/demo8/js/custom/documentation/charts/flotcharts/stack.js",
    "/demo8/js/custom/documentation/charts/flotcharts/tracking.js": "/demo8/js/custom/documentation/charts/flotcharts/tracking.js",
    "/demo8/js/custom/documentation/charts/google-charts/column.js": "/demo8/js/custom/documentation/charts/google-charts/column.js",
    "/demo8/js/custom/documentation/charts/google-charts/line.js": "/demo8/js/custom/documentation/charts/google-charts/line.js",
    "/demo8/js/custom/documentation/charts/google-charts/pie.js": "/demo8/js/custom/documentation/charts/google-charts/pie.js",
    "/demo8/js/custom/documentation/documentation.js": "/demo8/js/custom/documentation/documentation.js",
    "/demo8/js/custom/documentation/editors/ckeditor/balloon-block.js": "/demo8/js/custom/documentation/editors/ckeditor/balloon-block.js",
    "/demo8/js/custom/documentation/editors/ckeditor/balloon.js": "/demo8/js/custom/documentation/editors/ckeditor/balloon.js",
    "/demo8/js/custom/documentation/editors/ckeditor/classic.js": "/demo8/js/custom/documentation/editors/ckeditor/classic.js",
    "/demo8/js/custom/documentation/editors/ckeditor/document.js": "/demo8/js/custom/documentation/editors/ckeditor/document.js",
    "/demo8/js/custom/documentation/editors/ckeditor/inline.js": "/demo8/js/custom/documentation/editors/ckeditor/inline.js",
    "/demo8/js/custom/documentation/editors/quill/autosave.js": "/demo8/js/custom/documentation/editors/quill/autosave.js",
    "/demo8/js/custom/documentation/editors/quill/basic.js": "/demo8/js/custom/documentation/editors/quill/basic.js",
    "/demo8/js/custom/documentation/editors/tinymce/basic.js": "/demo8/js/custom/documentation/editors/tinymce/basic.js",
    "/demo8/js/custom/documentation/editors/tinymce/hidden.js": "/demo8/js/custom/documentation/editors/tinymce/hidden.js",
    "/demo8/js/custom/documentation/editors/tinymce/plugins.js": "/demo8/js/custom/documentation/editors/tinymce/plugins.js",
    "/demo8/js/custom/documentation/forms/bootstrap-maxlength.js": "/demo8/js/custom/documentation/forms/bootstrap-maxlength.js",
    "/demo8/js/custom/documentation/forms/clipboard.js": "/demo8/js/custom/documentation/forms/clipboard.js",
    "/demo8/js/custom/documentation/forms/daterangepicker.js": "/demo8/js/custom/documentation/forms/daterangepicker.js",
    "/demo8/js/custom/documentation/forms/dialer.js": "/demo8/js/custom/documentation/forms/dialer.js",
    "/demo8/js/custom/documentation/forms/dropzonejs.js": "/demo8/js/custom/documentation/forms/dropzonejs.js",
    "/demo8/js/custom/documentation/forms/flatpickr.js": "/demo8/js/custom/documentation/forms/flatpickr.js",
    "/demo8/js/custom/documentation/forms/formrepeater/advanced.js": "/demo8/js/custom/documentation/forms/formrepeater/advanced.js",
    "/demo8/js/custom/documentation/forms/formrepeater/basic.js": "/demo8/js/custom/documentation/forms/formrepeater/basic.js",
    "/demo8/js/custom/documentation/forms/formrepeater/nested.js": "/demo8/js/custom/documentation/forms/formrepeater/nested.js",
    "/demo8/js/custom/documentation/forms/formvalidation/advanced.js": "/demo8/js/custom/documentation/forms/formvalidation/advanced.js",
    "/demo8/js/custom/documentation/forms/formvalidation/basic.js": "/demo8/js/custom/documentation/forms/formvalidation/basic.js",
    "/demo8/js/custom/documentation/forms/image-input.js": "/demo8/js/custom/documentation/forms/image-input.js",
    "/demo8/js/custom/documentation/forms/inputmask.js": "/demo8/js/custom/documentation/forms/inputmask.js",
    "/demo8/js/custom/documentation/forms/multiselectsplitter.js": "/demo8/js/custom/documentation/forms/multiselectsplitter.js",
    "/demo8/js/custom/documentation/forms/nouislider.js": "/demo8/js/custom/documentation/forms/nouislider.js",
    "/demo8/js/custom/documentation/forms/password-meter.js": "/demo8/js/custom/documentation/forms/password-meter.js",
    "/demo8/js/custom/documentation/forms/recaptcha.js": "/demo8/js/custom/documentation/forms/recaptcha.js",
    "/demo8/js/custom/documentation/forms/select2.js": "/demo8/js/custom/documentation/forms/select2.js",
    "/demo8/js/custom/documentation/forms/tagify.js": "/demo8/js/custom/documentation/forms/tagify.js",
    "/demo8/js/custom/documentation/general/blockui.js": "/demo8/js/custom/documentation/general/blockui.js",
    "/demo8/js/custom/documentation/general/cropper.js": "/demo8/js/custom/documentation/general/cropper.js",
    "/demo8/js/custom/documentation/general/datatables/advanced.js": "/demo8/js/custom/documentation/general/datatables/advanced.js",
    "/demo8/js/custom/documentation/general/datatables/api.js": "/demo8/js/custom/documentation/general/datatables/api.js",
    "/demo8/js/custom/documentation/general/datatables/basic.js": "/demo8/js/custom/documentation/general/datatables/basic.js",
    "/demo8/js/custom/documentation/general/datatables/buttons.js": "/demo8/js/custom/documentation/general/datatables/buttons.js",
    "/demo8/js/custom/documentation/general/datatables/server-side.js": "/demo8/js/custom/documentation/general/datatables/server-side.js",
    "/demo8/js/custom/documentation/general/datatables/subtable.js": "/demo8/js/custom/documentation/general/datatables/subtable.js",
    "/demo8/js/custom/documentation/general/draggable/cards.js": "/demo8/js/custom/documentation/general/draggable/cards.js",
    "/demo8/js/custom/documentation/general/draggable/multiple-containers.js": "/demo8/js/custom/documentation/general/draggable/multiple-containers.js",
    "/demo8/js/custom/documentation/general/draggable/restricted.js": "/demo8/js/custom/documentation/general/draggable/restricted.js",
    "/demo8/js/custom/documentation/general/draggable/swappable.js": "/demo8/js/custom/documentation/general/draggable/swappable.js",
    "/demo8/js/custom/documentation/general/drawer.js": "/demo8/js/custom/documentation/general/drawer.js",
    "/demo8/js/custom/documentation/general/fullcalendar/background-events.js": "/demo8/js/custom/documentation/general/fullcalendar/background-events.js",
    "/demo8/js/custom/documentation/general/fullcalendar/basic.js": "/demo8/js/custom/documentation/general/fullcalendar/basic.js",
    "/demo8/js/custom/documentation/general/fullcalendar/drag-n-drop.js": "/demo8/js/custom/documentation/general/fullcalendar/drag-n-drop.js",
    "/demo8/js/custom/documentation/general/fullcalendar/locales.js": "/demo8/js/custom/documentation/general/fullcalendar/locales.js",
    "/demo8/js/custom/documentation/general/fullcalendar/selectable-dates.js": "/demo8/js/custom/documentation/general/fullcalendar/selectable-dates.js",
    "/demo8/js/custom/documentation/general/fullcalendar/timezone.js": "/demo8/js/custom/documentation/general/fullcalendar/timezone.js",
    "/demo8/js/custom/documentation/general/jkanban/basic.js": "/demo8/js/custom/documentation/general/jkanban/basic.js",
    "/demo8/js/custom/documentation/general/jkanban/color.js": "/demo8/js/custom/documentation/general/jkanban/color.js",
    "/demo8/js/custom/documentation/general/jkanban/fixed-height.js": "/demo8/js/custom/documentation/general/jkanban/fixed-height.js",
    "/demo8/js/custom/documentation/general/jkanban/restricted.js": "/demo8/js/custom/documentation/general/jkanban/restricted.js",
    "/demo8/js/custom/documentation/general/jkanban/rich.js": "/demo8/js/custom/documentation/general/jkanban/rich.js",
    "/demo8/js/custom/documentation/general/jstree/ajax.js": "/demo8/js/custom/documentation/general/jstree/ajax.js",
    "/demo8/js/custom/documentation/general/jstree/basic.js": "/demo8/js/custom/documentation/general/jstree/basic.js",
    "/demo8/js/custom/documentation/general/jstree/checkable.js": "/demo8/js/custom/documentation/general/jstree/checkable.js",
    "/demo8/js/custom/documentation/general/jstree/contextual.js": "/demo8/js/custom/documentation/general/jstree/contextual.js",
    "/demo8/js/custom/documentation/general/jstree/customicons.js": "/demo8/js/custom/documentation/general/jstree/customicons.js",
    "/demo8/js/custom/documentation/general/jstree/dragdrop.js": "/demo8/js/custom/documentation/general/jstree/dragdrop.js",
    "/demo8/js/custom/documentation/general/scroll.js": "/demo8/js/custom/documentation/general/scroll.js",
    "/demo8/js/custom/documentation/general/search/basic.js": "/demo8/js/custom/documentation/general/search/basic.js",
    "/demo8/js/custom/documentation/general/search/menu.js": "/demo8/js/custom/documentation/general/search/menu.js",
    "/demo8/js/custom/documentation/general/search/responsive.js": "/demo8/js/custom/documentation/general/search/responsive.js",
    "/demo8/js/custom/documentation/general/stepper.js": "/demo8/js/custom/documentation/general/stepper.js",
    "/demo8/js/custom/documentation/general/sweetalert.js": "/demo8/js/custom/documentation/general/sweetalert.js",
    "/demo8/js/custom/documentation/general/toastr.js": "/demo8/js/custom/documentation/general/toastr.js",
    "/demo8/js/custom/documentation/general/typed.js": "/demo8/js/custom/documentation/general/typed.js",
    "/demo8/js/custom/documentation/general/vis-timeline/basic.js": "/demo8/js/custom/documentation/general/vis-timeline/basic.js",
    "/demo8/js/custom/documentation/general/vis-timeline/group.js": "/demo8/js/custom/documentation/general/vis-timeline/group.js",
    "/demo8/js/custom/documentation/general/vis-timeline/interaction.js": "/demo8/js/custom/documentation/general/vis-timeline/interaction.js",
    "/demo8/js/custom/documentation/general/vis-timeline/style.js": "/demo8/js/custom/documentation/general/vis-timeline/style.js",
    "/demo8/js/custom/documentation/general/vis-timeline/template.js": "/demo8/js/custom/documentation/general/vis-timeline/template.js",
    "/demo8/js/custom/documentation/search.js": "/demo8/js/custom/documentation/search.js",
    "/demo8/js/custom/layout-builder/layout-builder.js": "/demo8/js/custom/layout-builder/layout-builder.js",
    "/demo8/js/custom/pages/careers/apply.js": "/demo8/js/custom/pages/careers/apply.js",
    "/demo8/js/custom/pages/general/contact.js": "/demo8/js/custom/pages/general/contact.js",
    "/demo8/js/custom/pages/pricing/general.js": "/demo8/js/custom/pages/pricing/general.js",
    "/demo8/js/custom/pages/social/feeds.js": "/demo8/js/custom/pages/social/feeds.js",
    "/demo8/js/custom/pages/user-profile/followers.js": "/demo8/js/custom/pages/user-profile/followers.js",
    "/demo8/js/custom/utilities/modals/bidding.js": "/demo8/js/custom/utilities/modals/bidding.js",
    "/demo8/js/custom/utilities/modals/create-account.js": "/demo8/js/custom/utilities/modals/create-account.js",
    "/demo8/js/custom/utilities/modals/create-api-key.js": "/demo8/js/custom/utilities/modals/create-api-key.js",
    "/demo8/js/custom/utilities/modals/create-app.js": "/demo8/js/custom/utilities/modals/create-app.js",
    "/demo8/js/custom/utilities/modals/create-campaign.js": "/demo8/js/custom/utilities/modals/create-campaign.js",
    "/demo8/js/custom/utilities/modals/create-project.js": "/demo8/js/custom/utilities/modals/create-project.js",
    "/demo8/js/custom/utilities/modals/create-project/budget.js": "/demo8/js/custom/utilities/modals/create-project/budget.js",
    "/demo8/js/custom/utilities/modals/create-project/complete.js": "/demo8/js/custom/utilities/modals/create-project/complete.js",
    "/demo8/js/custom/utilities/modals/create-project/files.js": "/demo8/js/custom/utilities/modals/create-project/files.js",
    "/demo8/js/custom/utilities/modals/create-project/main.js": "/demo8/js/custom/utilities/modals/create-project/main.js",
    "/demo8/js/custom/utilities/modals/create-project/settings.js": "/demo8/js/custom/utilities/modals/create-project/settings.js",
    "/demo8/js/custom/utilities/modals/create-project/targets.js": "/demo8/js/custom/utilities/modals/create-project/targets.js",
    "/demo8/js/custom/utilities/modals/create-project/team.js": "/demo8/js/custom/utilities/modals/create-project/team.js",
    "/demo8/js/custom/utilities/modals/create-project/type.js": "/demo8/js/custom/utilities/modals/create-project/type.js",
    "/demo8/js/custom/utilities/modals/new-address.js": "/demo8/js/custom/utilities/modals/new-address.js",
    "/demo8/js/custom/utilities/modals/new-card.js": "/demo8/js/custom/utilities/modals/new-card.js",
    "/demo8/js/custom/utilities/modals/new-target.js": "/demo8/js/custom/utilities/modals/new-target.js",
    "/demo8/js/custom/utilities/modals/offer-a-deal/complete.js": "/demo8/js/custom/utilities/modals/offer-a-deal/complete.js",
    "/demo8/js/custom/utilities/modals/offer-a-deal/details.js": "/demo8/js/custom/utilities/modals/offer-a-deal/details.js",
    "/demo8/js/custom/utilities/modals/offer-a-deal/finance.js": "/demo8/js/custom/utilities/modals/offer-a-deal/finance.js",
    "/demo8/js/custom/utilities/modals/offer-a-deal/main.js": "/demo8/js/custom/utilities/modals/offer-a-deal/main.js",
    "/demo8/js/custom/utilities/modals/offer-a-deal/type.js": "/demo8/js/custom/utilities/modals/offer-a-deal/type.js",
    "/demo8/js/custom/utilities/modals/select-location.js": "/demo8/js/custom/utilities/modals/select-location.js",
    "/demo8/js/custom/utilities/modals/share-earn.js": "/demo8/js/custom/utilities/modals/share-earn.js",
    "/demo8/js/custom/utilities/modals/top-up-wallet.js": "/demo8/js/custom/utilities/modals/top-up-wallet.js",
    "/demo8/js/custom/utilities/modals/two-factor-authentication.js": "/demo8/js/custom/utilities/modals/two-factor-authentication.js",
    "/demo8/js/custom/utilities/modals/upgrade-plan.js": "/demo8/js/custom/utilities/modals/upgrade-plan.js",
    "/demo8/js/custom/utilities/modals/users-search.js": "/demo8/js/custom/utilities/modals/users-search.js",
    "/demo8/js/custom/utilities/search/horizontal.js": "/demo8/js/custom/utilities/search/horizontal.js",
    "/demo8/js/custom/intro.js": "/demo8/js/custom/intro.js",
    "/demo8/js/custom/landing.js": "/demo8/js/custom/landing.js",
    "/demo8/plugins/global/plugins.bundle.css": "/demo8/plugins/global/plugins.bundle.css",
    "/demo8/plugins/custom/datatables/datatables.bundle.css": "/demo8/plugins/custom/datatables/datatables.bundle.css",
    "/demo8/plugins/custom/leaflet/leaflet.bundle.css": "/demo8/plugins/custom/leaflet/leaflet.bundle.css",
    "/demo8/plugins/custom/cropper/cropper.bundle.css": "/demo8/plugins/custom/cropper/cropper.bundle.css",
    "/demo8/plugins/custom/cookiealert/cookiealert.bundle.css": "/demo8/plugins/custom/cookiealert/cookiealert.bundle.css",
    "/demo8/plugins/custom/tiny-slider/tiny-slider.bundle.css": "/demo8/plugins/custom/tiny-slider/tiny-slider.bundle.css",
    "/demo8/plugins/custom/prismjs/prismjs.bundle.css": "/demo8/plugins/custom/prismjs/prismjs.bundle.css",
    "/demo8/plugins/custom/jstree/jstree.bundle.css": "/demo8/plugins/custom/jstree/jstree.bundle.css",
    "/demo8/plugins/custom/jkanban/jkanban.bundle.css": "/demo8/plugins/custom/jkanban/jkanban.bundle.css",
    "/demo8/plugins/custom/fullcalendar/fullcalendar.bundle.css": "/demo8/plugins/custom/fullcalendar/fullcalendar.bundle.css",
    "/demo8/plugins/custom/flatpickr/flatpickr.bundle.css": "/demo8/plugins/custom/flatpickr/flatpickr.bundle.css",
    "/demo8/css/style.bundle.css": "/demo8/css/style.bundle.css",
    "/demo8/plugins/global/plugins-custom.bundle.css": "/demo8/plugins/global/plugins-custom.bundle.css",
    "/demo8/plugins/global/plugins.bundle.js": "/demo8/plugins/global/plugins.bundle.js",
    "/demo8/js/scripts.bundle.js": "/demo8/js/scripts.bundle.js",
    "/demo8/js/custom/account/settings/profile-details.js": "/demo8/js/custom/account/settings/profile-details.js",
    "/demo8/js/custom/account/settings/signin-methods.js": "/demo8/js/custom/account/settings/signin-methods.js",
    "/demo8/js/custom/authentication/password-reset/new-password.js": "/demo8/js/custom/authentication/password-reset/new-password.js",
    "/demo8/js/custom/authentication/password-reset/password-reset.js": "/demo8/js/custom/authentication/password-reset/password-reset.js",
    "/demo8/js/custom/authentication/sign-in/general.js": "/demo8/js/custom/authentication/sign-in/general.js",
    "/demo8/js/custom/authentication/sign-up/general.js": "/demo8/js/custom/authentication/sign-up/general.js",
    "/demo8/js/custom/modals/two-factor-authentication.js": "/demo8/js/custom/modals/two-factor-authentication.js",
    "/demo8/js/custom/user-management/permissions/add-permission.js": "/demo8/js/custom/user-management/permissions/add-permission.js",
    "/demo8/js/custom/user-management/permissions/list.js": "/demo8/js/custom/user-management/permissions/list.js",
    "/demo8/js/custom/user-management/permissions/update-permission.js": "/demo8/js/custom/user-management/permissions/update-permission.js",
    "/demo8/js/custom/user-management/roles/list/add.js": "/demo8/js/custom/user-management/roles/list/add.js",
    "/demo8/js/custom/user-management/roles/list/update-role.js": "/demo8/js/custom/user-management/roles/list/update-role.js",
    "/demo8/js/custom/user-management/roles/view/update-role.js": "/demo8/js/custom/user-management/roles/view/update-role.js",
    "/demo8/js/custom/user-management/roles/view/view.js": "/demo8/js/custom/user-management/roles/view/view.js",
    "/demo8/js/custom/user-management/users/list/add.js": "/demo8/js/custom/user-management/users/list/add.js",
    "/demo8/js/custom/user-management/users/list/export-users.js": "/demo8/js/custom/user-management/users/list/export-users.js",
    "/demo8/js/custom/user-management/users/list/table.js": "/demo8/js/custom/user-management/users/list/table.js",
    "/demo8/js/custom/user-management/users/view/add-auth-app.js": "/demo8/js/custom/user-management/users/view/add-auth-app.js",
    "/demo8/js/custom/user-management/users/view/add-one-time-password.js": "/demo8/js/custom/user-management/users/view/add-one-time-password.js",
    "/demo8/js/custom/user-management/users/view/add-schedule.js": "/demo8/js/custom/user-management/users/view/add-schedule.js",
    "/demo8/js/custom/user-management/users/view/add-task.js": "/demo8/js/custom/user-management/users/view/add-task.js",
    "/demo8/js/custom/user-management/users/view/update-details.js": "/demo8/js/custom/user-management/users/view/update-details.js",
    "/demo8/js/custom/user-management/users/view/update-email.js": "/demo8/js/custom/user-management/users/view/update-email.js",
    "/demo8/js/custom/user-management/users/view/update-password.js": "/demo8/js/custom/user-management/users/view/update-password.js",
    "/demo8/js/custom/user-management/users/view/update-role.js": "/demo8/js/custom/user-management/users/view/update-role.js",
    "/demo8/js/custom/user-management/users/view/view.js": "/demo8/js/custom/user-management/users/view/view.js",
    "/demo8/js/custom/widgets.js": "/demo8/js/custom/widgets.js",
    "/demo8/js/vendors/plugins/datatables.init.js": "/demo8/js/vendors/plugins/datatables.init.js",
    "/demo8/plugins/global/fonts/fonticon/fonticon.eot": "/demo8/plugins/global/fonts/fonticon/fonticon.eot",
    "/demo8/plugins/global/fonts/fonticon/fonticon.svg": "/demo8/plugins/global/fonts/fonticon/fonticon.svg",
    "/demo8/plugins/global/fonts/fonticon/fonticon.ttf": "/demo8/plugins/global/fonts/fonticon/fonticon.ttf",
    "/demo8/plugins/global/fonts/fonticon/fonticon.woff": "/demo8/plugins/global/fonts/fonticon/fonticon.woff",
    "/demo8/plugins/global/fonts/fonticon/fonticon.woff2": "/demo8/plugins/global/fonts/fonticon/fonticon.woff2",
    "/demo8/plugins/global/fonts/fonticons/fonticons.eot": "/demo8/plugins/global/fonts/fonticons/fonticons.eot",
    "/demo8/plugins/global/fonts/fonticons/fonticons.svg": "/demo8/plugins/global/fonts/fonticons/fonticons.svg",
    "/demo8/plugins/global/fonts/fonticons/fonticons.ttf": "/demo8/plugins/global/fonts/fonticons/fonticons.ttf",
    "/demo8/plugins/global/fonts/fonticons/fonticons.woff": "/demo8/plugins/global/fonts/fonticons/fonticons.woff",
    "/demo8/plugins/global/fonts/fonticons/fonticons.woff2": "/demo8/plugins/global/fonts/fonticons/fonticons.woff2",
    "/demo8/plugins/global/fonts/@fortawesome/fa-brands-400.eot": "/demo8/plugins/global/fonts/@fortawesome/fa-brands-400.eot",
    "/demo8/plugins/global/fonts/@fortawesome/fa-brands-400.ttf": "/demo8/plugins/global/fonts/@fortawesome/fa-brands-400.ttf",
    "/demo8/plugins/global/fonts/@fortawesome/fa-brands-400.woff": "/demo8/plugins/global/fonts/@fortawesome/fa-brands-400.woff",
    "/demo8/plugins/global/fonts/@fortawesome/fa-brands-400.woff2": "/demo8/plugins/global/fonts/@fortawesome/fa-brands-400.woff2",
    "/demo8/plugins/global/fonts/@fortawesome/fa-regular-400.eot": "/demo8/plugins/global/fonts/@fortawesome/fa-regular-400.eot",
    "/demo8/plugins/global/fonts/@fortawesome/fa-regular-400.ttf": "/demo8/plugins/global/fonts/@fortawesome/fa-regular-400.ttf",
    "/demo8/plugins/global/fonts/@fortawesome/fa-regular-400.woff": "/demo8/plugins/global/fonts/@fortawesome/fa-regular-400.woff",
    "/demo8/plugins/global/fonts/@fortawesome/fa-regular-400.woff2": "/demo8/plugins/global/fonts/@fortawesome/fa-regular-400.woff2",
    "/demo8/plugins/global/fonts/@fortawesome/fa-solid-900.eot": "/demo8/plugins/global/fonts/@fortawesome/fa-solid-900.eot",
    "/demo8/plugins/global/fonts/@fortawesome/fa-solid-900.ttf": "/demo8/plugins/global/fonts/@fortawesome/fa-solid-900.ttf",
    "/demo8/plugins/global/fonts/@fortawesome/fa-solid-900.woff": "/demo8/plugins/global/fonts/@fortawesome/fa-solid-900.woff",
    "/demo8/plugins/global/fonts/@fortawesome/fa-solid-900.woff2": "/demo8/plugins/global/fonts/@fortawesome/fa-solid-900.woff2",
    "/demo8/plugins/global/fonts/bootstrap-icons/bootstrap-icons.woff": "/demo8/plugins/global/fonts/bootstrap-icons/bootstrap-icons.woff",
    "/demo8/plugins/global/fonts/bootstrap-icons/bootstrap-icons.woff2": "/demo8/plugins/global/fonts/bootstrap-icons/bootstrap-icons.woff2",
    "/demo8/plugins/global/fonts/line-awesome/fa-brands-400.eot": "/demo8/plugins/global/fonts/line-awesome/fa-brands-400.eot",
    "/demo8/plugins/global/fonts/line-awesome/fa-brands-400.ttf": "/demo8/plugins/global/fonts/line-awesome/fa-brands-400.ttf",
    "/demo8/plugins/global/fonts/line-awesome/fa-brands-400.woff": "/demo8/plugins/global/fonts/line-awesome/fa-brands-400.woff",
    "/demo8/plugins/global/fonts/line-awesome/fa-brands-400.woff2": "/demo8/plugins/global/fonts/line-awesome/fa-brands-400.woff2",
    "/demo8/plugins/global/fonts/line-awesome/fa-regular-400.eot": "/demo8/plugins/global/fonts/line-awesome/fa-regular-400.eot",
    "/demo8/plugins/global/fonts/line-awesome/fa-regular-400.ttf": "/demo8/plugins/global/fonts/line-awesome/fa-regular-400.ttf",
    "/demo8/plugins/global/fonts/line-awesome/fa-regular-400.woff": "/demo8/plugins/global/fonts/line-awesome/fa-regular-400.woff",
    "/demo8/plugins/global/fonts/line-awesome/fa-regular-400.woff2": "/demo8/plugins/global/fonts/line-awesome/fa-regular-400.woff2",
    "/demo8/plugins/global/fonts/line-awesome/fa-solid-900.eot": "/demo8/plugins/global/fonts/line-awesome/fa-solid-900.eot",
    "/demo8/plugins/global/fonts/line-awesome/fa-solid-900.ttf": "/demo8/plugins/global/fonts/line-awesome/fa-solid-900.ttf",
    "/demo8/plugins/global/fonts/line-awesome/fa-solid-900.woff": "/demo8/plugins/global/fonts/line-awesome/fa-solid-900.woff",
    "/demo8/plugins/global/fonts/line-awesome/fa-solid-900.woff2": "/demo8/plugins/global/fonts/line-awesome/fa-solid-900.woff2",
    "/demo8/plugins/global/fonts/line-awesome/la-brands-400.eot": "/demo8/plugins/global/fonts/line-awesome/la-brands-400.eot",
    "/demo8/plugins/global/fonts/line-awesome/la-brands-400.ttf": "/demo8/plugins/global/fonts/line-awesome/la-brands-400.ttf",
    "/demo8/plugins/global/fonts/line-awesome/la-brands-400.woff": "/demo8/plugins/global/fonts/line-awesome/la-brands-400.woff",
    "/demo8/plugins/global/fonts/line-awesome/la-brands-400.woff2": "/demo8/plugins/global/fonts/line-awesome/la-brands-400.woff2",
    "/demo8/plugins/global/fonts/line-awesome/la-regular-400.eot": "/demo8/plugins/global/fonts/line-awesome/la-regular-400.eot",
    "/demo8/plugins/global/fonts/line-awesome/la-regular-400.ttf": "/demo8/plugins/global/fonts/line-awesome/la-regular-400.ttf",
    "/demo8/plugins/global/fonts/line-awesome/la-regular-400.woff": "/demo8/plugins/global/fonts/line-awesome/la-regular-400.woff",
    "/demo8/plugins/global/fonts/line-awesome/la-regular-400.woff2": "/demo8/plugins/global/fonts/line-awesome/la-regular-400.woff2",
    "/demo8/plugins/global/fonts/line-awesome/la-solid-900.eot": "/demo8/plugins/global/fonts/line-awesome/la-solid-900.eot",
    "/demo8/plugins/global/fonts/line-awesome/la-solid-900.ttf": "/demo8/plugins/global/fonts/line-awesome/la-solid-900.ttf",
    "/demo8/plugins/global/fonts/line-awesome/la-solid-900.woff": "/demo8/plugins/global/fonts/line-awesome/la-solid-900.woff",
    "/demo8/plugins/global/fonts/line-awesome/la-solid-900.woff2": "/demo8/plugins/global/fonts/line-awesome/la-solid-900.woff2",
    "/demo8/plugins/custom/jstree/32px.png": "/demo8/plugins/custom/jstree/32px.png",
    "/demo8/plugins/custom/jstree/40px.png": "/demo8/plugins/custom/jstree/40px.png",
    "/demo8/plugins/custom/jstree/throbber.gif": "/demo8/plugins/custom/jstree/throbber.gif",
    "/demo8/plugins/custom/datatables/datatables.bundle.js": "/demo8/plugins/custom/datatables/datatables.bundle.js",
    "/demo8/plugins/custom/flatpickr/flatpickr.bundle.js": "/demo8/plugins/custom/flatpickr/flatpickr.bundle.js",
    "/demo8/plugins/custom/formrepeater/formrepeater.bundle.js": "/demo8/plugins/custom/formrepeater/formrepeater.bundle.js",
    "/demo8/plugins/custom/fullcalendar/fullcalendar.bundle.js": "/demo8/plugins/custom/fullcalendar/fullcalendar.bundle.js"
}
